/Users/LalinPethiyagoda/IdeaProjects/leaf_boot/src/main/java/com/leafbank/kafka/KafkaProducer.java
/Users/LalinPethiyagoda/IdeaProjects/leaf_boot/src/main/java/com/leafbank/model/JsonFiledName.java
/Users/LalinPethiyagoda/IdeaProjects/leaf_boot/src/main/java/com/leafbank/controller/LogInController.java
/Users/LalinPethiyagoda/IdeaProjects/leaf_boot/src/main/java/com/leafbank/model/AccountsList.java
/Users/LalinPethiyagoda/IdeaProjects/leaf_boot/src/main/java/com/leafbank/Application.java
/Users/LalinPethiyagoda/IdeaProjects/leaf_boot/src/main/java/com/leafbank/service/CustomerService.java
/Users/LalinPethiyagoda/IdeaProjects/leaf_boot/src/main/java/com/leafbank/model/EmailData.java
/Users/LalinPethiyagoda/IdeaProjects/leaf_boot/src/main/java/com/leafbank/validation/DOBConstraint.java
/Users/LalinPethiyagoda/IdeaProjects/leaf_boot/src/main/java/com/leafbank/controller/NewCustomerController.java
/Users/LalinPethiyagoda/IdeaProjects/leaf_boot/src/main/java/com/leafbank/model/Address.java
/Users/LalinPethiyagoda/IdeaProjects/leaf_boot/src/main/java/com/leafbank/exceptions/LeafConstraintViolationException.java
/Users/LalinPethiyagoda/IdeaProjects/leaf_boot/src/main/java/com/leafbank/model/AccountDetails.java
/Users/LalinPethiyagoda/IdeaProjects/leaf_boot/src/main/java/com/leafbank/domain/AccountEntity.java
/Users/LalinPethiyagoda/IdeaProjects/leaf_boot/src/main/java/com/leafbank/config/ThreadConfiguration.java
/Users/LalinPethiyagoda/IdeaProjects/leaf_boot/src/main/java/com/leafbank/dao/CustomerDAO.java
/Users/LalinPethiyagoda/IdeaProjects/leaf_boot/src/main/java/com/leafbank/config/SpringApplicationConfig.java
/Users/LalinPethiyagoda/IdeaProjects/leaf_boot/src/main/java/com/leafbank/dao/CardDAO.java
/Users/LalinPethiyagoda/IdeaProjects/leaf_boot/src/main/java/com/leafbank/exceptions/LeafControllerAdvice.java
/Users/LalinPethiyagoda/IdeaProjects/leaf_boot/src/main/java/com/leafbank/controller/FindCustomerController.java
/Users/LalinPethiyagoda/IdeaProjects/leaf_boot/src/main/java/com/leafbank/kafka/KafkaConsumer.java
/Users/LalinPethiyagoda/IdeaProjects/leaf_boot/src/main/java/com/leafbank/model/AddressList.java
/Users/LalinPethiyagoda/IdeaProjects/leaf_boot/src/main/java/com/leafbank/domain/AddressEntity.java
/Users/LalinPethiyagoda/IdeaProjects/leaf_boot/src/main/java/com/leafbank/domain/CustomerEntity.java
/Users/LalinPethiyagoda/IdeaProjects/leaf_boot/src/main/java/com/leafbank/controller/NewCardListController.java
/Users/LalinPethiyagoda/IdeaProjects/leaf_boot/src/main/java/com/leafbank/model/CreditCard.java
/Users/LalinPethiyagoda/IdeaProjects/leaf_boot/src/main/java/com/leafbank/service/email/EmailService.java
/Users/LalinPethiyagoda/IdeaProjects/leaf_boot/src/main/java/com/leafbank/domain/FundsTransfer.java
/Users/LalinPethiyagoda/IdeaProjects/leaf_boot/src/main/java/com/leafbank/model/CreditCardRequest.java
/Users/LalinPethiyagoda/IdeaProjects/leaf_boot/src/main/java/com/leafbank/domain/ContactDetailsEntity.java
/Users/LalinPethiyagoda/IdeaProjects/leaf_boot/src/main/java/com/leafbank/domain/TransactionEntity.java
/Users/LalinPethiyagoda/IdeaProjects/leaf_boot/src/main/java/com/leafbank/exceptions/ErrorResponse.java
/Users/LalinPethiyagoda/IdeaProjects/leaf_boot/src/main/java/com/leafbank/exceptions/DetailedMessage.java
/Users/LalinPethiyagoda/IdeaProjects/leaf_boot/src/main/java/com/leafbank/model/CustomerResponse.java
/Users/LalinPethiyagoda/IdeaProjects/leaf_boot/src/main/java/com/leafbank/domain/AccountAccessLog.java
/Users/LalinPethiyagoda/IdeaProjects/leaf_boot/src/main/java/com/leafbank/validation/NameConstraint.java
/Users/LalinPethiyagoda/IdeaProjects/leaf_boot/src/main/java/com/leafbank/model/ContactDetails.java
/Users/LalinPethiyagoda/IdeaProjects/leaf_boot/src/main/java/com/leafbank/domain/CreditCardEntity.java
/Users/LalinPethiyagoda/IdeaProjects/leaf_boot/src/main/java/com/leafbank/util/SpringValidationUtils.java
/Users/LalinPethiyagoda/IdeaProjects/leaf_boot/src/main/java/com/leafbank/model/LoginRequest.java
/Users/LalinPethiyagoda/IdeaProjects/leaf_boot/src/main/java/com/leafbank/model/CustomerRequest.java
/Users/LalinPethiyagoda/IdeaProjects/leaf_boot/src/main/java/com/leafbank/service/CardService.java
